^D:\PROJECTS\C++\DLIB1\DLIB1\X64\RELEASE\MAIN.OBJ
/OUT:"D:\PROJECTS\C++\DLIB1\X64\RELEASE\DLIB1.EXE" /NOLOGO DLIB.LIB KERNEL32.LIB USER32.LIB GDI32.LIB WINSPOOL.LIB COMDLG32.LIB ADVAPI32.LIB SHELL32.LIB OLE32.LIB OLEAUT32.LIB UUID.LIB ODBC32.LIB ODBCCP32.LIB /MANIFEST /MANIFESTUAC:"level='asInvoker' uiAccess='false'" /manifest:embed /DEBUG:FULL /PDB:"D:\PROJECTS\C++\DLIB1\X64\RELEASE\DLIB1.PDB" /OPT:REF /OPT:ICF /LTCG:incremental /TLBID:1 /DYNAMICBASE /NXCOMPAT /IMPLIB:"D:\PROJECTS\C++\DLIB1\X64\RELEASE\DLIB1.LIB" /MACHINE:X64 X64\RELEASE\MAIN.OBJ
^D:\PROJECTS\C++\DLIB MIMIC MOVEMENTS\DLIB1\X64\RELEASE\MAIN.OBJ
/OUT:"D:\PROJECTS\C++\DLIB MIMIC MOVEMENTS\X64\RELEASE\DLIB1.EXE" /NOLOGO DLIB.LIB KERNEL32.LIB USER32.LIB GDI32.LIB WINSPOOL.LIB COMDLG32.LIB ADVAPI32.LIB SHELL32.LIB OLE32.LIB OLEAUT32.LIB UUID.LIB ODBC32.LIB ODBCCP32.LIB /MANIFEST /MANIFESTUAC:"level='asInvoker' uiAccess='false'" /manifest:embed /DEBUG:FULL /PDB:"D:\PROJECTS\C++\DLIB MIMIC MOVEMENTS\X64\RELEASE\DLIB1.PDB" /OPT:REF /OPT:ICF /LTCG:incremental /TLBID:1 /DYNAMICBASE /NXCOMPAT /IMPLIB:"D:\PROJECTS\C++\DLIB MIMIC MOVEMENTS\X64\RELEASE\DLIB1.LIB" /MACHINE:X64 X64\RELEASE\MAIN.OBJ
